[gd_scene load_steps=3 format=3 uid="uid://crf86vfegii5w"]

[ext_resource type="Script" path="res://scripts/local_menu.gd" id="1_6owog"]
[ext_resource type="PackedScene" uid="uid://dormm0bb6rbex" path="res://scenes/player_customizer.tscn" id="2_2jr21"]

[node name="local_menu" type="Control"]
layout_mode = 3
anchors_preset = 0
script = ExtResource("1_6owog")

[node name="player_1" parent="." instance=ExtResource("2_2jr21")]
offset_left = 132.0
offset_top = 132.0
offset_right = 132.0
offset_bottom = 132.0

[node name="player_2" parent="." instance=ExtResource("2_2jr21")]
offset_left = 722.0
offset_top = 132.0
offset_right = 722.0
offset_bottom = 132.0

[node name="player_vs_player" type="Button" parent="."]
layout_mode = 0
offset_left = 372.0
offset_top = 129.0
offset_right = 655.0
offset_bottom = 205.0
text = "Player vs. Player"

[node name="player_vs_ai" type="Button" parent="."]
layout_mode = 0
offset_left = 371.0
offset_top = 215.0
offset_right = 655.0
offset_bottom = 291.0
text = "Player vs. AI"

[node name="back" type="Button" parent="."]
layout_mode = 0
offset_left = 371.0
offset_top = 298.0
offset_right = 655.0
offset_bottom = 370.0
text = "back"

[connection signal="pressed" from="player_vs_player" to="." method="_on_player_vs_player_pressed"]
[connection signal="pressed" from="player_vs_ai" to="." method="_on_player_vs_ai_pressed"]
[connection signal="pressed" from="back" to="." method="_on_back_pressed"]
